{
	"stateList": [{
		"stateName": "Anadaman and Nicobar Islands",
		"districtList": [{
			"districtName": "Nicobar"
		}, {
			"districtName": "North Middle Andaman"
		}, {
			"districtName": "South Andaman"
		}]
	}, {
		"stateName": "Andhra Pradesh",
		"districtList": [{
			"districtName": "Anantapur"
		}, {
			"districtName": "Chittoor"
		}, {
			"districtName": "East Godavari"
		}, {
			"districtName": "Guntur"
		}, {
			"districtName": "Kadapa"
		}, {
			"districtName": "Krishna"
		}, {
			"districtName": "Kurnool"
		}, {
			"districtName": "Nellore"
		}, {
			"districtName": "Prakasam"
		}, {
			"districtName": "Srikakulam"
		}, {
			"districtName": "Visakhapatnam"
		}, {
			"districtName": "Vizianagaram"
		}, {
			"districtName": "West Godavari"
		}]
	}, {
		"stateName": "Arunachal Pradesh",
		"districtList": [{
			"districtName": "Anjaw"
		}, {
			"districtName": "Central Siang"
		}, {
			"districtName": "Changlang"
		}, {
			"districtName": "Dibang Valley"
		}, {
			"districtName": "East Kameng"
		}, {
			"districtName": "East Siang"
		}, {
			"districtName": "Kamle"
		}, {
			"districtName": "Kra Daadi"
		}, {
			"districtName": "Kurung Kumey"
		}, {
			"districtName": "Lepa Rada"
		}, {
			"districtName": "Lohit"
		}, {
			"districtName": "Longding"
		}, {
			"districtName": "Lower Dibang Valley"
		}, {
			"districtName": "Lower Siang"
		}, {
			"districtName": "Lower Subansiri"
		}, {
			"districtName": "Namsai"
		}, {
			"districtName": "Pakke Kessang"
		}, {
			"districtName": "Papum Pare"
		}, {
			"districtName": "Shi Yomi"
		}, {
			"districtName": "Tawang"
		}, {
			"districtName": "Tirap"
		}, {
			"districtName": "Upper Siang"
		}, {
			"districtName": "Upper Subansiri"
		}, {
			"districtName": "West Kameng"
		}, {
			"districtName": "West Siang"
		}]
	}, {
		"stateName": "Assam",
		"districtList": [{
			"districtName": "Baksa"
		}, {
			"districtName": "Barpeta"
		}, {
			"districtName": "Biswanath"
		}, {
			"districtName": "Bongaigaon"
		}, {
			"districtName": "Cachar"
		}, {
			"districtName": "Charaideo"
		}, {
			"districtName": "Chirang"
		}, {
			"districtName": "Darrang"
		}, {
			"districtName": "Dhemaji"
		}, {
			"districtName": "Dhubri"
		}, {
			"districtName": "Dibrugarh"
		}, {
			"districtName": "Dima Hasao"
		}, {
			"districtName": "Goalpara"
		}, {
			"districtName": "Golaghat"
		}, {
			"districtName": "Hailakandi"
		}, {
			"districtName": "Hojai"
		}, {
			"districtName": "Jorhat"
		}, {
			"districtName": "Kamrup"
		}, {
			"districtName": "Kamrup Metropolitan"
		}, {
			"districtName": "Karbi Anglong"
		}, {
			"districtName": "Karimganj"
		}, {
			"districtName": "Kokrajhar"
		}, {
			"districtName": "Lakhimpur"
		}, {
			"districtName": "Majuli"
		}, {
			"districtName": "Morigaon"
		}, {
			"districtName": "Nagaon"
		}, {
			"districtName": "Nalbari"
		}, {
			"districtName": "Sivasagar"
		}, {
			"districtName": "Sonitpur"
		}, {
			"districtName": "South Salmara-Mankachar"
		}, {
			"districtName": "Tinsukia"
		}, {
			"districtName": "Udalguri"
		}, {
			"districtName": "West Karbi Anglong"
		}]
	}, {
		"stateName": "Bihar",
		"districtList": [{
			"districtName": "Araria"
		}, {
			"districtName": "Arwal"
		}, {
			"districtName": "Aurangabad"
		}, {
			"districtName": "Banka"
		}, {
			"districtName": "Begusarai"
		}, {
			"districtName": "Bhagalpur"
		}, {
			"districtName": "Bhojpur"
		}, {
			"districtName": "Buxar"
		}, {
			"districtName": "Darbhanga"
		}, {
			"districtName": "East Champaran"
		}, {
			"districtName": "Gaya"
		}, {
			"districtName": "Gopalganj"
		}, {
			"districtName": "Jamui"
		}, {
			"districtName": "Jehanabad"
		}, {
			"districtName": "Kaimur"
		}, {
			"districtName": "Katihar"
		}, {
			"districtName": "Khagaria"
		}, {
			"districtName": "Kishanganj"
		}, {
			"districtName": "Lakhisarai"
		}, {
			"districtName": "Madhepura"
		}, {
			"districtName": "Madhubani"
		}, {
			"districtName": "Munger"
		}, {
			"districtName": "Muzaffarpur"
		}, {
			"districtName": "Nalanda"
		}, {
			"districtName": "Nawada"
		}, {
			"districtName": "Patna"
		}, {
			"districtName": "Purnia"
		}, {
			"districtName": "Rohtas"
		}, {
			"districtName": "Saharsa"
		}, {
			"districtName": "Samastipur"
		}, {
			"districtName": "Saran"
		}, {
			"districtName": "Sheikhpura"
		}, {
			"districtName": "Sheohar"
		}, {
			"districtName": "Sitamarhi"
		}, {
			"districtName": "Siwan"
		}, {
			"districtName": "Supaul"
		}, {
			"districtName": "Vaishali"
		}, {
			"districtName": "West Champaran"
		}]
	}, {
		"stateName": "Chandigarh",
		"districtList": [{
			"districtName": "Chandigarh"
		}]
	}, {
		"stateName": "Chhattisgarh",
		"districtList": [{
			"districtName": "Balod"
		}, {
			"districtName": "Baloda Bazar"
		}, {
			"districtName": "Balrampur"
		}, {
			"districtName": "Bastar"
		}, {
			"districtName": "Bemetara"
		}, {
			"districtName": "Bijapur"
		}, {
			"districtName": "Bilaspur"
		}, {
			"districtName": "Dantewada"
		}, {
			"districtName": "Dhamtari"
		}, {
			"districtName": "Durg"
		}, {
			"districtName": "Gariaband"
		}, {
			"districtName": "Gaurela Pendra Marwahi"
		}, {
			"districtName": "Janjgir Champa"
		}, {
			"districtName": "Jashpur"
		}, {
			"districtName": "Kabirdham"
		}, {
			"districtName": "Kanker"
		}, {
			"districtName": "Kondagaon"
		}, {
			"districtName": "Korba"
		}, {
			"districtName": "Koriya"
		}, {
			"districtName": "Mahasamund"
		}, {
			"districtName": "Mungeli"
		}, {
			"districtName": "Narayanpur"
		}, {
			"districtName": "Raigarh"
		}, {
			"districtName": "Raipur"
		}, {
			"districtName": "Rajnandgaon"
		}, {
			"districtName": "Sukma"
		}, {
			"districtName": "Surajpur"
		}, {
			"districtName": "Surguja"
		}]
	}, {
		"stateName": "Dadra Nagar Haveli",
		"districtList": [{
			"districtName": "Dadra Nagar Haveli"
		}]
	}, {
		"stateName": "Daman and Diu",
		"districtList": [{
			"districtName": "Daman"
		}, {
			"districtName": "Diu"
		}]
	}, {
		"stateName": "Delhi",
		"districtList": [{
			"districtName": "Central Delhi"
		}, {
			"districtName": "East Delhi"
		}, {
			"districtName": "New Delhi"
		}, {
			"districtName": "North Delhi"
		}, {
			"districtName": "North East Delhi"
		}, {
			"districtName": "North West Delhi"
		}, {
			"districtName": "Shahdara"
		}, {
			"districtName": "South Delhi"
		}, {
			"districtName": "South East Delhi"
		}, {
			"districtName": "South West Delhi"
		}, {
			"districtName": "West Delhi"
		}]
	}, {
		"stateName": "Goa",
		"districtList": [{
			"districtName": "North Goa"
		}, {
			"districtName": "South Goa"
		}]
	}, {
		"stateName": "Gujarat",
		"districtList": [{
			"districtName": "Ahmedabad"
		}, {
			"districtName": "Amreli"
		}, {
			"districtName": "Anand"
		}, {
			"districtName": "Aravalli"
		}, {
			"districtName": "Banaskantha"
		}, {
			"districtName": "Bharuch"
		}, {
			"districtName": "Bhavnagar"
		}, {
			"districtName": "Botad"
		}, {
			"districtName": "Chhota Udaipur"
		}, {
			"districtName": "Dahod"
		}, {
			"districtName": "Dang"
		}, {
			"districtName": "Devbhoomi Dwarka"
		}, {
			"districtName": "Gandhinagar"
		}, {
			"districtName": "Gir Somnath"
		}, {
			"districtName": "Jamnagar"
		}, {
			"districtName": "Junagadh"
		}, {
			"districtName": "Kheda"
		}, {
			"districtName": "Kutch"
		}, {
			"districtName": "Mahisagar"
		}, {
			"districtName": "Mehsana"
		}, {
			"districtName": "Morbi"
		}, {
			"districtName": "Narmada"
		}, {
			"districtName": "Navsari"
		}, {
			"districtName": "Panchmahal"
		}, {
			"districtName": "Patan"
		}, {
			"districtName": "Porbandar"
		}, {
			"districtName": "Rajkot"
		}, {
			"districtName": "Sabarkantha"
		}, {
			"districtName": "Surat"
		}, {
			"districtName": "Surendranagar"
		}, {
			"districtName": "Tapi"
		}, {
			"districtName": "Vadodara"
		}, {
			"districtName": "Valsad"
		}]
	}, {
		"stateName": "Haryana",
		"districtList": [{
			"districtName": "Ambala"
		}, {
			"districtName": "Bhiwani"
		}, {
			"districtName": "Charkhi Dadri"
		}, {
			"districtName": "Faridabad"
		}, {
			"districtName": "Fatehabad"
		}, {
			"districtName": "Gurugram"
		}, {
			"districtName": "Hisar"
		}, {
			"districtName": "Jhajjar"
		}, {
			"districtName": "Jind"
		}, {
			"districtName": "Kaithal"
		}, {
			"districtName": "Karnal"
		}, {
			"districtName": "Kurukshetra"
		}, {
			"districtName": "Mahendragarh"
		}, {
			"districtName": "Mewat"
		}, {
			"districtName": "Palwal"
		}, {
			"districtName": "Panchkula"
		}, {
			"districtName": "Panipat"
		}, {
			"districtName": "Rewari"
		}, {
			"districtName": "Rohtak"
		}, {
			"districtName": "Sirsa"
		}, {
			"districtName": "Sonipat"
		}, {
			"districtName": "Yamunanagar"
		}]
	}, {
		"stateName": "Himachal Pradesh",
		"districtList": [{
			"districtName": "Bilaspur"
		}, {
			"districtName": "Chamba"
		}, {
			"districtName": "Hamirpur"
		}, {
			"districtName": "Kangra"
		}, {
			"districtName": "Kinnaur"
		}, {
			"districtName": "Kullu"
		}, {
			"districtName": "Lahaul Spiti"
		}, {
			"districtName": "Mandi"
		}, {
			"districtName": "Shimla"
		}, {
			"districtName": "Sirmaur"
		}, {
			"districtName": "Solan"
		}, {
			"districtName": "Una"
		}]
	}, {
		"stateName": "Jammu Kashmir",
		"districtList": [{
			"districtName": "Anantnag"
		}, {
			"districtName": "Bandipora"
		}, {
			"districtName": "Baramulla"
		}, {
			"districtName": "Budgam"
		}, {
			"districtName": "Doda"
		}, {
			"districtName": "Ganderbal"
		}, {
			"districtName": "Jammu"
		}, {
			"districtName": "Kathua"
		}, {
			"districtName": "Kishtwar"
		}, {
			"districtName": "Kulgam"
		}, {
			"districtName": "Kupwara"
		}, {
			"districtName": "Poonch"
		}, {
			"districtName": "Pulwama"
		}, {
			"districtName": "Rajouri"
		}, {
			"districtName": "Ramban"
		}, {
			"districtName": "Reasi"
		}, {
			"districtName": "Samba"
		}, {
			"districtName": "Shopian"
		}, {
			"districtName": "Srinagar"
		}, {
			"districtName": "Udhampur"
		}]
	}, {
		"stateName": "Jharkhand",
		"districtList": [{
			"districtName": "Bokaro"
		}, {
			"districtName": "Chatra"
		}, {
			"districtName": "Deoghar"
		}, {
			"districtName": "Dhanbad"
		}, {
			"districtName": "Dumka"
		}, {
			"districtName": "East Singhbhum"
		}, {
			"districtName": "Garhwa"
		}, {
			"districtName": "Giridih"
		}, {
			"districtName": "Godda"
		}, {
			"districtName": "Gumla"
		}, {
			"districtName": "Hazaribagh"
		}, {
			"districtName": "Jamtara"
		}, {
			"districtName": "Khunti"
		}, {
			"districtName": "Koderma"
		}, {
			"districtName": "Latehar"
		}, {
			"districtName": "Lohardaga"
		}, {
			"districtName": "Pakur"
		}, {
			"districtName": "Palamu"
		}, {
			"districtName": "Ramgarh"
		}, {
			"districtName": "Ranchi"
		}, {
			"districtName": "Sahebganj"
		}, {
			"districtName": "Seraikela Kharsawan"
		}, {
			"districtName": "Simdega"
		}, {
			"districtName": "West Singhbhum"
		}]
	}, {
		"stateName": "Karnataka",
		"districtList": [{
			"districtName": "Bagalkot"
		}, {
			"districtName": "Bangalore Rural"
		}, {
			"districtName": "Bangalore Urban"
		}, {
			"districtName": "Belgaum"
		}, {
			"districtName": "Bellary"
		}, {
			"districtName": "Bidar"
		}, {
			"districtName": "Chamarajanagar"
		}, {
			"districtName": "Chikkaballapur"
		}, {
			"districtName": "Chikkamagaluru"
		}, {
			"districtName": "Chitradurga"
		}, {
			"districtName": "Dakshina Kannada"
		}, {
			"districtName": "Davanagere"
		}, {
			"districtName": "Dharwad"
		}, {
			"districtName": "Gadag"
		}, {
			"districtName": "Gulbarga"
		}, {
			"districtName": "Hassan"
		}, {
			"districtName": "Haveri"
		}, {
			"districtName": "Kodagu"
		}, {
			"districtName": "Kolar"
		}, {
			"districtName": "Koppal"
		}, {
			"districtName": "Mandya"
		}, {
			"districtName": "Mysore"
		}, {
			"districtName": "Raichur"
		}, {
			"districtName": "Ramanagara"
		}, {
			"districtName": "Shimoga"
		}, {
			"districtName": "Tumkur"
		}, {
			"districtName": "Udupi"
		}, {
			"districtName": "Uttara Kannada"
		}, {
			"districtName": "Vijayapura "
		}, {
			"districtName": "Yadgir"
		}]
	}, {
		"stateName": "Kerala",
		"districtList": [{
			"districtName": "Alappuzha"
		}, {
			"districtName": "Ernakulam"
		}, {
			"districtName": "Idukki"
		}, {
			"districtName": "Kannur"
		}, {
			"districtName": "Kasaragod"
		}, {
			"districtName": "Kollam"
		}, {
			"districtName": "Kottayam"
		}, {
			"districtName": "Kozhikode"
		}, {
			"districtName": "Malappuram"
		}, {
			"districtName": "Palakkad"
		}, {
			"districtName": "Pathanamthitta"
		}, {
			"districtName": "Thiruvananthapuram"
		}, {
			"districtName": "Thrissur"
		}, {
			"districtName": "Wayanad"
		}]
	}, {
		"stateName": "Ladakh",
		"districtList": [{
			"districtName": "Kargil"
		}, {
			"districtName": "Leh"
		}]
	}, {
		"stateName": "Lakshadweep",
		"districtList": [{
			"districtName": "Lakshadweep"
		}]
	}, {
		"stateName": "Madhya Pradesh",
		"districtList": [{
			"districtName": "Agar Malwa"
		}, {
			"districtName": "Alirajpur"
		}, {
			"districtName": "Anuppur"
		}, {
			"districtName": "Ashoknagar"
		}, {
			"districtName": "Balaghat"
		}, {
			"districtName": "Barwani"
		}, {
			"districtName": "Betul"
		}, {
			"districtName": "Bhind"
		}, {
			"districtName": "Bhopal"
		}, {
			"districtName": "Burhanpur"
		}, {
			"districtName": "Chachaura"
		}, {
			"districtName": "Chhatarpur"
		}, {
			"districtName": "Chhindwara"
		}, {
			"districtName": "Damoh"
		}, {
			"districtName": "Datia"
		}, {
			"districtName": "Dewas"
		}, {
			"districtName": "Dhar"
		}, {
			"districtName": "Dindori"
		}, {
			"districtName": "Guna"
		}, {
			"districtName": "Gwalior"
		}, {
			"districtName": "Harda"
		}, {
			"districtName": "Hoshangabad"
		}, {
			"districtName": "Indore"
		}, {
			"districtName": "Jabalpur"
		}, {
			"districtName": "Jhabua"
		}, {
			"districtName": "Katni"
		}, {
			"districtName": "Khandwa"
		}, {
			"districtName": "Khargone"
		}, {
			"districtName": "Maihar"
		}, {
			"districtName": "Mandla"
		}, {
			"districtName": "Mandsaur"
		}, {
			"districtName": "Morena"
		}, {
			"districtName": "Nagda"
		}, {
			"districtName": "Narsinghpur"
		}, {
			"districtName": "Neemuch"
		}, {
			"districtName": "Niwari"
		}, {
			"districtName": "Panna"
		}, {
			"districtName": "Raisen"
		}, {
			"districtName": "Rajgarh"
		}, {
			"districtName": "Ratlam"
		}, {
			"districtName": "Rewa"
		}, {
			"districtName": "Sagar"
		}, {
			"districtName": "Satna"
		}, {
			"districtName": "Sehore"
		}, {
			"districtName": "Seoni"
		}, {
			"districtName": "Shahdol"
		}, {
			"districtName": "Shajapur"
		}, {
			"districtName": "Sheopur"
		}, {
			"districtName": "Shivpuri"
		}, {
			"districtName": "Sidhi"
		}, {
			"districtName": "Singrauli"
		}, {
			"districtName": "Tikamgarh"
		}, {
			"districtName": "Ujjain"
		}, {
			"districtName": "Umaria"
		}, {
			"districtName": "Vidisha"
		}]
	}, {
		"stateName": "Maharashtra",
		"districtList": [{
			"districtName": "Ahmednagar"
		}, {
			"districtName": "Akola"
		}, {
			"districtName": "Amravati"
		}, {
			"districtName": "Aurangabad"
		}, {
			"districtName": "Beed"
		}, {
			"districtName": "Bhandara"
		}, {
			"districtName": "Buldhana"
		}, {
			"districtName": "Chandrapur"
		}, {
			"districtName": "Dhule"
		}, {
			"districtName": "Gadchiroli"
		}, {
			"districtName": "Gondia"
		}, {
			"districtName": "Hingoli"
		}, {
			"districtName": "Jalgaon"
		}, {
			"districtName": "Jalna"
		}, {
			"districtName": "Kolhapur"
		}, {
			"districtName": "Latur"
		}, {
			"districtName": "Mumbai City"
		}, {
			"districtName": "Mumbai Suburban"
		}, {
			"districtName": "Nagpur"
		}, {
			"districtName": "Nanded"
		}, {
			"districtName": "Nandurbar"
		}, {
			"districtName": "Nashik"
		}, {
			"districtName": "Osmanabad"
		}, {
			"districtName": "Palghar"
		}, {
			"districtName": "Parbhani"
		}, {
			"districtName": "Pune"
		}, {
			"districtName": "Raigad"
		}, {
			"districtName": "Ratnagiri"
		}, {
			"districtName": "Sangli"
		}, {
			"districtName": "Satara"
		}, {
			"districtName": "Sindhudurg"
		}, {
			"districtName": "Solapur"
		}, {
			"districtName": "Thane"
		}, {
			"districtName": "Wardha"
		}, {
			"districtName": "Washim"
		}, {
			"districtName": "Yavatmal"
		}]
	}, {
		"stateName": "Manipur",
		"districtList": [{
			"districtName": "Bishnupur"
		}, {
			"districtName": "Chandel"
		}, {
			"districtName": "Churachandpur"
		}, {
			"districtName": "Imphal East"
		}, {
			"districtName": "Imphal West"
		}, {
			"districtName": "Jiribam"
		}, {
			"districtName": "Kakching"
		}, {
			"districtName": "Kamjong"
		}, {
			"districtName": "Kangpokpi"
		}, {
			"districtName": "Noney"
		}, {
			"districtName": "Pherzawl"
		}, {
			"districtName": "Senapati"
		}, {
			"districtName": "Tamenglong"
		}, {
			"districtName": "Tengnoupal"
		}, {
			"districtName": "Thoubal"
		}, {
			"districtName": "Ukhrul"
		}]
	}, {
		"stateName": "Meghalaya",
		"districtList": [{
			"districtName": "East Garo Hills"
		}, {
			"districtName": "East Jaintia Hills"
		}, {
			"districtName": "East Khasi Hills"
		}, {
			"districtName": "North Garo Hills"
		}, {
			"districtName": "Ri Bhoi"
		}, {
			"districtName": "South Garo Hills"
		}, {
			"districtName": "South West Garo Hills"
		}, {
			"districtName": "South West Khasi Hills"
		}, {
			"districtName": "West Garo Hills"
		}, {
			"districtName": "West Jaintia Hills"
		}, {
			"districtName": "West Khasi Hills"
		}]
	}, {
		"stateName": "Mizoram",
		"districtList": [{
			"districtName": "Aizawl"
		}, {
			"districtName": "Champhai"
		}, {
			"districtName": "Kolasib"
		}, {
			"districtName": "Lawngtlai"
		}, {
			"districtName": "Lunglei"
		}, {
			"districtName": "Mamit"
		}, {
			"districtName": "Saiha"
		}, {
			"districtName": "Serchhip"
		}]
	}, {
		"stateName": "Nagaland",
		"districtList": [{
			"districtName": "Dimapur"
		}, {
			"districtName": "Kiphire"
		}, {
			"districtName": "Kohima"
		}, {
			"districtName": "Longleng"
		}, {
			"districtName": "Mokokchung"
		}, {
			"districtName": "Mon"
		}, {
			"districtName": "Noklak"
		}, {
			"districtName": "Peren"
		}, {
			"districtName": "Phek"
		}, {
			"districtName": "Tuensang"
		}, {
			"districtName": "Wokha"
		}, {
			"districtName": "Zunheboto"
		}]
	}, {
		"stateName": "Odisha",
		"districtList": [{
			"districtName": "Angul"
		}, {
			"districtName": "Balangir"
		}, {
			"districtName": "Balasore"
		}, {
			"districtName": "Bargarh"
		}, {
			"districtName": "Bhadrak"
		}, {
			"districtName": "Boudh"
		}, {
			"districtName": "Cuttack"
		}, {
			"districtName": "Debagarh"
		}, {
			"districtName": "Dhenkanal"
		}, {
			"districtName": "Gajapati"
		}, {
			"districtName": "Ganjam"
		}, {
			"districtName": "Jagatsinghpur"
		}, {
			"districtName": "Jajpur"
		}, {
			"districtName": "Jharsuguda"
		}, {
			"districtName": "Kalahandi"
		}, {
			"districtName": "Kandhamal"
		}, {
			"districtName": "Kendrapara"
		}, {
			"districtName": "Kendujhar"
		}, {
			"districtName": "Khordha"
		}, {
			"districtName": "Koraput"
		}, {
			"districtName": "Malkangiri"
		}, {
			"districtName": "Mayurbhanj"
		}, {
			"districtName": "Nabarangpur"
		}, {
			"districtName": "Nayagarh"
		}, {
			"districtName": "Nuapada"
		}, {
			"districtName": "Puri"
		}, {
			"districtName": "Rayagada"
		}, {
			"districtName": "Sambalpur"
		}, {
			"districtName": "Subarnapur"
		}, {
			"districtName": "Sundergarh"
		}]
	}, {
		"stateName": "Puducherry",
		"districtList": [{
			"districtName": "29"
		}, {
			"districtName": "Karaikal"
		}, {
			"districtName": "Mahe"
		}, {
			"districtName": "Yanam"
		}]
	}, {
		"stateName": "Punjab",
		"districtList": [{
			"districtName": "Amritsar"
		}, {
			"districtName": "Barnala"
		}, {
			"districtName": "Bathinda"
		}, {
			"districtName": "Faridkot"
		}, {
			"districtName": "Fatehgarh Sahib"
		}, {
			"districtName": "Fazilka"
		}, {
			"districtName": "Firozpur"
		}, {
			"districtName": "Gurdaspur"
		}, {
			"districtName": "Hoshiarpur"
		}, {
			"districtName": "Jalandhar"
		}, {
			"districtName": "Kapurthala"
		}, {
			"districtName": "Ludhiana"
		}, {
			"districtName": "Mansa"
		}, {
			"districtName": "Moga"
		}, {
			"districtName": "Mohali"
		}, {
			"districtName": "Muktsar"
		}, {
			"districtName": "Pathankot"
		}, {
			"districtName": "Patiala"
		}, {
			"districtName": "Rupnagar"
		}, {
			"districtName": "Sangrur"
		}, {
			"districtName": "Shaheed Bhagat Singh Nagar"
		}, {
			"districtName": "Tarn Taran"
		}]
	}, {
		"stateName": "Rajasthan",
		"districtList": [{
			"districtName": "Ajmer"
		}, {
			"districtName": "Alwar"
		}, {
			"districtName": "Banswara"
		}, {
			"districtName": "Baran"
		}, {
			"districtName": "Barmer"
		}, {
			"districtName": "Bharatpur"
		}, {
			"districtName": "Bhilwara"
		}, {
			"districtName": "Bikaner"
		}, {
			"districtName": "Bundi"
		}, {
			"districtName": "Chittorgarh"
		}, {
			"districtName": "Churu"
		}, {
			"districtName": "Dausa"
		}, {
			"districtName": "Dholpur"
		}, {
			"districtName": "Dungarpur"
		}, {
			"districtName": "Hanumangarh"
		}, {
			"districtName": "Jaipur"
		}, {
			"districtName": "Jaisalmer"
		}, {
			"districtName": "Jalore"
		}, {
			"districtName": "Jhalawar"
		}, {
			"districtName": "Jhunjhunu"
		}, {
			"districtName": "Jodhpur"
		}, {
			"districtName": "Karauli"
		}, {
			"districtName": "Kota"
		}, {
			"districtName": "Nagaur"
		}, {
			"districtName": "Pali"
		}, {
			"districtName": "Pratapgarh"
		}, {
			"districtName": "Rajsamand"
		}, {
			"districtName": "Sawai Madhopur"
		}, {
			"districtName": "Sikar"
		}, {
			"districtName": "Sirohi"
		}, {
			"districtName": "Sri Ganganagar"
		}, {
			"districtName": "Tonk"
		}, {
			"districtName": "Udaipur"
		}]
	}, {
		"stateName": "Sikkim",
		"districtList": [{
			"districtName": "East Sikkim"
		}, {
			"districtName": "North Sikkim"
		}, {
			"districtName": "South Sikkim"
		}, {
			"districtName": "West Sikkim"
		}]
	}, {
		"stateName": "Tamil Nadu",
		"districtList": [{
			"districtName": "Ariyalur"
		}, {
			"districtName": "Chengalpattu"
		}, {
			"districtName": "Chennai"
		}, {
			"districtName": "Coimbatore"
		}, {
			"districtName": "Cuddalore"
		}, {
			"districtName": "Dharmapuri"
		}, {
			"districtName": "Dindigul"
		}, {
			"districtName": "Erode"
		}, {
			"districtName": "Kallakurichi"
		}, {
			"districtName": "Kanchipuram"
		}, {
			"districtName": "Kanyakumari"
		}, {
			"districtName": "Karur"
		}, {
			"districtName": "Krishnagiri"
		}, {
			"districtName": "Madurai"
		}, {
			"districtName": "Mayiladuthurai "
		}, {
			"districtName": "Nagapattinam"
		}, {
			"districtName": "Namakkal"
		}, {
			"districtName": "Nilgiris"
		}, {
			"districtName": "Perambalur"
		}, {
			"districtName": "Pudukkottai"
		}, {
			"districtName": "Ramanathapuram"
		}, {
			"districtName": "Ranipet"
		}, {
			"districtName": "Salem"
		}, {
			"districtName": "Sivaganga"
		}, {
			"districtName": "Tenkasi"
		}, {
			"districtName": "Thanjavur"
		}, {
			"districtName": "Theni"
		}, {
			"districtName": "Thoothukudi"
		}, {
			"districtName": "Tiruchirappalli"
		}, {
			"districtName": "Tirunelveli"
		}, {
			"districtName": "Tirupattur"
		}, {
			"districtName": "Tiruppur"
		}, {
			"districtName": "Tiruvallur"
		}, {
			"districtName": "Tiruvannamalai"
		}, {
			"districtName": "Tiruvarur"
		}, {
			"districtName": "Vellore"
		}, {
			"districtName": "Viluppuram"
		}, {
			"districtName": "Virudhunagar"
		}]
	}, {
		"stateName": "Telangana",
		"districtList": [{
			"districtName": "Adilabad"
		}, {
			"districtName": "Bhadradri Kothagudem"
		}, {
			"districtName": "Hyderabad"
		}, {
			"districtName": "Jagtial"
		}, {
			"districtName": "Jangaon"
		}, {
			"districtName": "Jayashankar"
		}, {
			"districtName": "Jogulamba"
		}, {
			"districtName": "Kamareddy"
		}, {
			"districtName": "Karimnagar"
		}, {
			"districtName": "Khammam"
		}, {
			"districtName": "Komaram Bheem"
		}, {
			"districtName": "Mahabubabad"
		}, {
			"districtName": "Mahbubnagar"
		}, {
			"districtName": "Mancherial"
		}, {
			"districtName": "Medak"
		}, {
			"districtName": "Medchal"
		}, {
			"districtName": "Mulugu"
		}, {
			"districtName": "Nagarkurnool"
		}, {
			"districtName": "Nalgonda"
		}, {
			"districtName": "Narayanpet"
		}, {
			"districtName": "Nirmal"
		}, {
			"districtName": "Nizamabad"
		}, {
			"districtName": "Peddapalli"
		}, {
			"districtName": "Rajanna Sircilla"
		}, {
			"districtName": "Ranga Reddy"
		}, {
			"districtName": "Sangareddy"
		}, {
			"districtName": "Siddipet"
		}, {
			"districtName": "Suryapet"
		}, {
			"districtName": "Vikarabad"
		}, {
			"districtName": "Wanaparthy"
		}, {
			"districtName": "Warangal Rural"
		}, {
			"districtName": "Warangal Urban"
		}, {
			"districtName": "Yadadri Bhuvanagiri"
		}]
	}, {
		"stateName": "Tripura",
		"districtList": [{
			"districtName": "Dhalai"
		}, {
			"districtName": "Gomati"
		}, {
			"districtName": "Khowai"
		}, {
			"districtName": "North Tripura"
		}, {
			"districtName": "Sepahijala"
		}, {
			"districtName": "South Tripura"
		}, {
			"districtName": "Unakoti"
		}, {
			"districtName": "West Tripura"
		}]
	}, {
		"stateName": "Uttar Pradesh",
		"districtList": [{
			"districtName": "Agra"
		}, {
			"districtName": "Aligarh"
		}, {
			"districtName": "Ambedkar Nagar"
		}, {
			"districtName": "Amethi"
		}, {
			"districtName": "Amroha"
		}, {
			"districtName": "Auraiya"
		}, {
			"districtName": "Ayodhya"
		}, {
			"districtName": "Azamgarh"
		}, {
			"districtName": "Baghpat"
		}, {
			"districtName": "Bahraich"
		}, {
			"districtName": "Ballia"
		}, {
			"districtName": "Balrampur"
		}, {
			"districtName": "Banda"
		}, {
			"districtName": "Barabanki"
		}, {
			"districtName": "Bareilly"
		}, {
			"districtName": "Basti"
		}, {
			"districtName": "Bhadohi"
		}, {
			"districtName": "Bijnor"
		}, {
			"districtName": "Budaun"
		}, {
			"districtName": "Bulandshahr"
		}, {
			"districtName": "Chandauli"
		}, {
			"districtName": "Chitrakoot"
		}, {
			"districtName": "Deoria"
		}, {
			"districtName": "Etah"
		}, {
			"districtName": "Etawah"
		}, {
			"districtName": "Farrukhabad"
		}, {
			"districtName": "Fatehpur"
		}, {
			"districtName": "Firozabad"
		}, {
			"districtName": "Gautam Buddha Nagar"
		}, {
			"districtName": "Ghaziabad"
		}, {
			"districtName": "Ghazipur"
		}, {
			"districtName": "Gonda"
		}, {
			"districtName": "Gorakhpur"
		}, {
			"districtName": "Hamirpur"
		}, {
			"districtName": "Hapur"
		}, {
			"districtName": "Hardoi"
		}, {
			"districtName": "Hathras"
		}, {
			"districtName": "Jalaun"
		}, {
			"districtName": "Jaunpur"
		}, {
			"districtName": "Jhansi"
		}, {
			"districtName": "Kannauj"
		}, {
			"districtName": "Kanpur Dehat"
		}, {
			"districtName": "Kanpur Nagar"
		}, {
			"districtName": "Kasganj"
		}, {
			"districtName": "Kaushambi"
		}, {
			"districtName": "Kheri"
		}, {
			"districtName": "Kushinagar"
		}, {
			"districtName": "Lalitpur"
		}, {
			"districtName": "Lucknow"
		}, {
			"districtName": "Maharajganj"
		}, {
			"districtName": "Mahoba"
		}, {
			"districtName": "Mainpuri"
		}, {
			"districtName": "Mathura"
		}, {
			"districtName": "Mau"
		}, {
			"districtName": "Meerut"
		}, {
			"districtName": "Mirzapur"
		}, {
			"districtName": "Moradabad"
		}, {
			"districtName": "Muzaffarnagar"
		}, {
			"districtName": "Pilibhit"
		}, {
			"districtName": "Pratapgarh"
		}, {
			"districtName": "Prayagraj"
		}, {
			"districtName": "Raebareli"
		}, {
			"districtName": "Rampur"
		}, {
			"districtName": "Saharanpur"
		}, {
			"districtName": "Sambhal"
		}, {
			"districtName": "Sant Kabir Nagar"
		}, {
			"districtName": "Shahjahanpur"
		}, {
			"districtName": "Shamli"
		}, {
			"districtName": "Shravasti"
		}, {
			"districtName": "Siddharthnagar"
		}, {
			"districtName": "Sitapur"
		}, {
			"districtName": "Sonbhadra"
		}, {
			"districtName": "Sultanpur"
		}, {
			"districtName": "Unnao"
		}, {
			"districtName": "Varanasi"
		}]
	}, {
		"stateName": "Uttarakhand",
		"districtList": [{
			"districtName": "Almora"
		}, {
			"districtName": "Bageshwar"
		}, {
			"districtName": "Chamoli"
		}, {
			"districtName": "Champawat"
		}, {
			"districtName": "Dehradun"
		}, {
			"districtName": "Haridwar"
		}, {
			"districtName": "Nainital"
		}, {
			"districtName": "Pauri"
		}, {
			"districtName": "Pithoragarh"
		}, {
			"districtName": "Rudraprayag"
		}, {
			"districtName": "Tehri"
		}, {
			"districtName": "Udham Singh Nagar"
		}, {
			"districtName": "Uttarkashi"
		}]
	}, {
		"stateName": "West Bengal",
		"districtList": [{
			"districtName": "Alipurduar"
		}, {
			"districtName": "Bankura"
		}, {
			"districtName": "Birbhum"
		}, {
			"districtName": "Cooch Behar"
		}, {
			"districtName": "Dakshin Dinajpur"
		}, {
			"districtName": "Darjeeling"
		}, {
			"districtName": "Hooghly"
		}, {
			"districtName": "Howrah"
		}, {
			"districtName": "Jalpaiguri"
		}, {
			"districtName": "Jhargram"
		}, {
			"districtName": "Kalimpong"
		}, {
			"districtName": "Kolkata"
		}, {
			"districtName": "Malda"
		}, {
			"districtName": "Murshidabad"
		}, {
			"districtName": "Nadia"
		}, {
			"districtName": "North 24 Parganas"
		}, {
			"districtName": "Paschim Bardhaman"
		}, {
			"districtName": "Paschim Medinipur"
		}, {
			"districtName": "Purba Bardhaman"
		}, {
			"districtName": "Purba Medinipur"
		}, {
			"districtName": "Purulia"
		}, {
			"districtName": "South 24 Parganas"
		}, {
			"districtName": "Uttar Dinajpur"
		}]
	}]
}